{
    "variable": [
        {
            "id": "baseUrl",
            "key": "baseUrl",
            "type": "string",
            "name": "string",
            "value": "http:\/\/gg-api.local:8080"
        }
    ],
    "info": {
        "name": "GoGreen API Documentation",
        "_postman_id": "67b167aa-4a3a-4547-ac41-abcb2f5aea20",
        "description": "",
        "schema": "https:\/\/schema.getpostman.com\/json\/collection\/v2.1.0\/collection.json"
    },
    "item": [
        {
            "name": "Client",
            "description": "",
            "item": [
                {
                    "name": "Get Client Data",
                    "request": {
                        "url": {
                            "host": "{{baseUrl}}",
                            "path": "api\/clients\/get\/:id",
                            "query": [],
                            "raw": "{{baseUrl}}\/api\/clients\/get\/:id",
                            "variable": [
                                {
                                    "id": "id",
                                    "key": "id",
                                    "value": "11",
                                    "description": "Client ID."
                                }
                            ]
                        },
                        "method": "GET",
                        "header": [
                            {
                                "key": "Content-Type",
                                "value": "application\/json"
                            },
                            {
                                "key": "Accept",
                                "value": "application\/json"
                            }
                        ],
                        "body": null,
                        "description": "Returns Client data array\n\nOtherwise returns unauthenticated or error array"
                    },
                    "response": [
                        {
                            "header": [
                                {
                                    "key": "cache-control",
                                    "value": "no-cache, private"
                                },
                                {
                                    "key": "content-type",
                                    "value": "application\/json"
                                },
                                {
                                    "key": "x-ratelimit-limit",
                                    "value": "60"
                                },
                                {
                                    "key": "x-ratelimit-remaining",
                                    "value": "59"
                                },
                                {
                                    "key": "access-control-allow-origin",
                                    "value": "*"
                                }
                            ],
                            "code": 200,
                            "body": "[]",
                            "name": ""
                        }
                    ]
                }
            ]
        },
        {
            "name": "Container",
            "description": "",
            "item": [
                {
                    "name": "Get Container Data",
                    "request": {
                        "url": {
                            "host": "{{baseUrl}}",
                            "path": "api\/containers\/get\/:id",
                            "query": [],
                            "raw": "{{baseUrl}}\/api\/containers\/get\/:id",
                            "variable": [
                                {
                                    "id": "id",
                                    "key": "id",
                                    "value": "4",
                                    "description": "Container ID."
                                }
                            ]
                        },
                        "method": "GET",
                        "header": [
                            {
                                "key": "Content-Type",
                                "value": "application\/json"
                            },
                            {
                                "key": "Accept",
                                "value": "application\/json"
                            }
                        ],
                        "body": null,
                        "description": "Returns Container data array\n\nOtherwise returns unauthenticated or error array"
                    },
                    "response": [
                        {
                            "header": [
                                {
                                    "key": "cache-control",
                                    "value": "no-cache, private"
                                },
                                {
                                    "key": "content-type",
                                    "value": "application\/json"
                                },
                                {
                                    "key": "x-ratelimit-limit",
                                    "value": "60"
                                },
                                {
                                    "key": "x-ratelimit-remaining",
                                    "value": "51"
                                },
                                {
                                    "key": "access-control-allow-origin",
                                    "value": "*"
                                }
                            ],
                            "code": 200,
                            "body": "[{\"id\":4,\"code\":\"8YD Wait + Load\",\"description\":\"8 Yard Wait + Load\",\"cubic_yards\":\"8.0000\"}]",
                            "name": ""
                        }
                    ]
                }
            ]
        },
        {
            "name": "Endpoints",
            "description": "",
            "item": [
                {
                    "name": "api\/reset-password",
                    "request": {
                        "url": {
                            "host": "{{baseUrl}}",
                            "path": "api\/reset-password",
                            "query": [],
                            "raw": "{{baseUrl}}\/api\/reset-password"
                        },
                        "method": "POST",
                        "header": [
                            {
                                "key": "Content-Type",
                                "value": "application\/json"
                            },
                            {
                                "key": "Accept",
                                "value": "application\/json"
                            }
                        ],
                        "body": null,
                        "description": ""
                    },
                    "response": []
                }
            ]
        },
        {
            "name": "Login Authentication",
            "description": "",
            "item": [
                {
                    "name": "Login",
                    "request": {
                        "url": {
                            "host": "{{baseUrl}}",
                            "path": "api\/login",
                            "query": [],
                            "raw": "{{baseUrl}}\/api\/login"
                        },
                        "method": "POST",
                        "header": [
                            {
                                "key": "Content-Type",
                                "value": "application\/json"
                            },
                            {
                                "key": "Accept",
                                "value": "application\/json"
                            }
                        ],
                        "body": {
                            "mode": "raw",
                            "raw": "{\"email\":\"fugiat\",\"password\":\"quia\",\"device_name\":\"sit\"}"
                        },
                        "description": "Simple user login and if successful returns an array containing device name and bearer token\n\nOtherwise returns array containing error message",
                        "auth": {
                            "type": "noauth"
                        }
                    },
                    "response": []
                }
            ]
        },
        {
            "name": "Movements",
            "description": "",
            "item": [
                {
                    "name": "Get Movement Data",
                    "request": {
                        "url": {
                            "host": "{{baseUrl}}",
                            "path": "api\/movements\/get\/:id",
                            "query": [],
                            "raw": "{{baseUrl}}\/api\/movements\/get\/:id",
                            "variable": [
                                {
                                    "id": "id",
                                    "key": "id",
                                    "value": "9",
                                    "description": "Movement ID."
                                }
                            ]
                        },
                        "method": "GET",
                        "header": [
                            {
                                "key": "Content-Type",
                                "value": "application\/json"
                            },
                            {
                                "key": "Accept",
                                "value": "application\/json"
                            }
                        ],
                        "body": null,
                        "description": "Returns Movement data array\n\nOtherwise returns unauthenticated or error array"
                    },
                    "response": [
                        {
                            "header": [
                                {
                                    "key": "cache-control",
                                    "value": "no-cache, private"
                                },
                                {
                                    "key": "content-type",
                                    "value": "application\/json"
                                },
                                {
                                    "key": "x-ratelimit-limit",
                                    "value": "60"
                                },
                                {
                                    "key": "x-ratelimit-remaining",
                                    "value": "55"
                                },
                                {
                                    "key": "access-control-allow-origin",
                                    "value": "*"
                                }
                            ],
                            "code": 200,
                            "body": "[{\"id\":9,\"eta_notes\":\"past - Wait + Load\",\"date_required\":\"2022-02-17 19:57:09\",\"last_movement_date\":\"2022-02-25 19:57:39\",\"can_book_exchange\":0,\"can_book_removal\":0,\"can_book_redelivery\":1,\"site\":{\"id\":1,\"name\":\"Test Site\",\"address\":\"England\",\"postcode\":\"LN18HL\",\"site_contact\":\"Dave\",\"site_email\":\"admin@site.com\"},\"client\":{\"id\":1,\"short_code\":\"TEST\",\"name\":\"Test Client\",\"address\":\"England\",\"postcode\":\"LN89ID\",\"telephone\":\"10987654321\",\"status\":1},\"supplier\":{\"id\":2,\"name\":\"BW Waste LTD\"},\"movement_type\":{\"id\":5,\"type\":\"Wait + Load\"},\"container_group\":{\"id\":4,\"type\":4,\"waste_type\":{\"name\":\"Timber\",\"code\":\"19.02.02\"},\"is_hazardous\":1,\"po_number\":\"3456456\",\"permit_required\":0,\"container\":{\"id\":4,\"code\":\"8YD Wait + Load\",\"description\":\"8 Yard Wait + Load\",\"cubic_yards\":\"8.0000\"}}}]",
                            "name": ""
                        }
                    ]
                },
                {
                    "name": "Get Movement By Site",
                    "request": {
                        "url": {
                            "host": "{{baseUrl}}",
                            "path": "api\/movements\/get\/site\/:id",
                            "query": [
                                {
                                    "key": "onsite",
                                    "value": "1",
                                    "description": "OnSite (1 or 0). Leave out to return all.",
                                    "disabled": false
                                },
                                {
                                    "key": "future",
                                    "value": "1",
                                    "description": "Future (1 or 0). Leave out to return all.",
                                    "disabled": false
                                },
                                {
                                    "key": "past",
                                    "value": "",
                                    "description": "Past (1 or 0). Leave out to return all.",
                                    "disabled": true
                                },
                                {
                                    "key": "limit",
                                    "value": "17",
                                    "description": "Past. Leave out to return all.",
                                    "disabled": false
                                }
                            ],
                            "raw": "{{baseUrl}}\/api\/movements\/get\/site\/:id?onsite=1&future=1&past=&limit=17",
                            "variable": [
                                {
                                    "id": "id",
                                    "key": "id",
                                    "value": "16",
                                    "description": "Site ID."
                                }
                            ]
                        },
                        "method": "GET",
                        "header": [
                            {
                                "key": "Content-Type",
                                "value": "application\/json"
                            },
                            {
                                "key": "Accept",
                                "value": "application\/json"
                            }
                        ],
                        "body": null,
                        "description": "Returns an array of Movements on a specific site\n\nOtherwise returns unauthenticated or error array"
                    },
                    "response": [
                        {
                            "header": [
                                {
                                    "key": "cache-control",
                                    "value": "no-cache, private"
                                },
                                {
                                    "key": "content-type",
                                    "value": "application\/json"
                                },
                                {
                                    "key": "x-ratelimit-limit",
                                    "value": "60"
                                },
                                {
                                    "key": "x-ratelimit-remaining",
                                    "value": "54"
                                },
                                {
                                    "key": "access-control-allow-origin",
                                    "value": "*"
                                }
                            ],
                            "code": 200,
                            "body": "[]",
                            "name": ""
                        }
                    ]
                },
                {
                    "name": "Get Movement By Client",
                    "request": {
                        "url": {
                            "host": "{{baseUrl}}",
                            "path": "api\/movements\/get\/client\/:id",
                            "query": [
                                {
                                    "key": "onsite",
                                    "value": "",
                                    "description": "OnSite (1 or 0). Leave out to return all.",
                                    "disabled": true
                                },
                                {
                                    "key": "future",
                                    "value": "",
                                    "description": "Future (1 or 0). Leave out to return all.",
                                    "disabled": true
                                },
                                {
                                    "key": "past",
                                    "value": "",
                                    "description": "Past (1 or 0). Leave out to return all.",
                                    "disabled": true
                                },
                                {
                                    "key": "limit",
                                    "value": "13",
                                    "description": "Past. Leave out to return all.",
                                    "disabled": false
                                }
                            ],
                            "raw": "{{baseUrl}}\/api\/movements\/get\/client\/:id?onsite=&future=&past=&limit=13",
                            "variable": [
                                {
                                    "id": "id",
                                    "key": "id",
                                    "value": "7",
                                    "description": "Client ID."
                                }
                            ]
                        },
                        "method": "GET",
                        "header": [
                            {
                                "key": "Content-Type",
                                "value": "application\/json"
                            },
                            {
                                "key": "Accept",
                                "value": "application\/json"
                            }
                        ],
                        "body": null,
                        "description": "Returns an array of Movements on a specific client\n\nOtherwise returns unauthenticated or error array"
                    },
                    "response": [
                        {
                            "header": [
                                {
                                    "key": "cache-control",
                                    "value": "no-cache, private"
                                },
                                {
                                    "key": "content-type",
                                    "value": "application\/json"
                                },
                                {
                                    "key": "x-ratelimit-limit",
                                    "value": "60"
                                },
                                {
                                    "key": "x-ratelimit-remaining",
                                    "value": "52"
                                },
                                {
                                    "key": "access-control-allow-origin",
                                    "value": "*"
                                }
                            ],
                            "code": 200,
                            "body": "[]",
                            "name": ""
                        }
                    ]
                },
                {
                    "name": "Get Movement for specific Site categorised by State (On Site, Future or Past)",
                    "request": {
                        "url": {
                            "host": "{{baseUrl}}",
                            "path": "api\/movements\/get\/site\/:id\/categorised",
                            "query": [],
                            "raw": "{{baseUrl}}\/api\/movements\/get\/site\/:id\/categorised",
                            "variable": [
                                {
                                    "id": "id",
                                    "key": "id",
                                    "value": "",
                                    "description": "Site ID."
                                }
                            ]
                        },
                        "method": "GET",
                        "header": [
                            {
                                "key": "Content-Type",
                                "value": "application\/json"
                            },
                            {
                                "key": "Accept",
                                "value": "application\/json"
                            }
                        ],
                        "body": null,
                        "description": "Returns an array of Movements on a specific site\n\nOtherwise returns unauthenticated or error array"
                    },
                    "response": [
                        {
                            "header": [
                                {
                                    "key": "cache-control",
                                    "value": "no-cache, private"
                                },
                                {
                                    "key": "content-type",
                                    "value": "application\/json"
                                },
                                {
                                    "key": "x-ratelimit-limit",
                                    "value": "60"
                                },
                                {
                                    "key": "x-ratelimit-remaining",
                                    "value": "53"
                                },
                                {
                                    "key": "access-control-allow-origin",
                                    "value": "*"
                                }
                            ],
                            "code": 500,
                            "body": "{\n    \"message\": \"Argument 1 passed to App\\\\Http\\\\Controllers\\\\MovementController::getMovementsBySiteCategoriseByState() must be of the type int, string given, called in D:\\\\Development\\\\projects\\\\gogreen\\\\api\\\\vendor\\\\laravel\\\\framework\\\\src\\\\Illuminate\\\\Routing\\\\Controller.php on line 54\",\n    \"exception\": \"TypeError\",\n    \"file\": \"D:\\\\Development\\\\projects\\\\gogreen\\\\api\\\\app\\\\Http\\\\Controllers\\\\MovementController.php\",\n    \"line\": 110,\n    \"trace\": [\n        {\n            \"file\": \"D:\\\\Development\\\\projects\\\\gogreen\\\\api\\\\vendor\\\\laravel\\\\framework\\\\src\\\\Illuminate\\\\Routing\\\\Controller.php\",\n            \"line\": 54,\n            \"function\": \"getMovementsBySiteCategoriseByState\",\n            \"class\": \"App\\\\Http\\\\Controllers\\\\MovementController\",\n            \"type\": \"->\"\n        },\n        {\n            \"file\": \"D:\\\\Development\\\\projects\\\\gogreen\\\\api\\\\vendor\\\\laravel\\\\framework\\\\src\\\\Illuminate\\\\Routing\\\\ControllerDispatcher.php\",\n            \"line\": 45,\n            \"function\": \"callAction\",\n            \"class\": \"Illuminate\\\\Routing\\\\Controller\",\n            \"type\": \"->\"\n        },\n        {\n            \"file\": \"D:\\\\Development\\\\projects\\\\gogreen\\\\api\\\\vendor\\\\laravel\\\\framework\\\\src\\\\Illuminate\\\\Routing\\\\Route.php\",\n            \"line\": 262,\n            \"function\": \"dispatch\",\n            \"class\": \"Illuminate\\\\Routing\\\\ControllerDispatcher\",\n            \"type\": \"->\"\n        },\n        {\n            \"file\": \"D:\\\\Development\\\\projects\\\\gogreen\\\\api\\\\vendor\\\\laravel\\\\framework\\\\src\\\\Illuminate\\\\Routing\\\\Route.php\",\n            \"line\": 205,\n            \"function\": \"runController\",\n            \"class\": \"Illuminate\\\\Routing\\\\Route\",\n            \"type\": \"->\"\n        },\n        {\n            \"file\": \"D:\\\\Development\\\\projects\\\\gogreen\\\\api\\\\vendor\\\\laravel\\\\framework\\\\src\\\\Illuminate\\\\Routing\\\\Router.php\",\n            \"line\": 695,\n            \"function\": \"run\",\n            \"class\": \"Illuminate\\\\Routing\\\\Route\",\n            \"type\": \"->\"\n        },\n        {\n            \"file\": \"D:\\\\Development\\\\projects\\\\gogreen\\\\api\\\\vendor\\\\laravel\\\\framework\\\\src\\\\Illuminate\\\\Pipeline\\\\Pipeline.php\",\n            \"line\": 128,\n            \"function\": \"Illuminate\\\\Routing\\\\{closure}\",\n            \"class\": \"Illuminate\\\\Routing\\\\Router\",\n            \"type\": \"->\"\n        },\n        {\n            \"file\": \"D:\\\\Development\\\\projects\\\\gogreen\\\\api\\\\vendor\\\\laravel\\\\framework\\\\src\\\\Illuminate\\\\Routing\\\\Middleware\\\\SubstituteBindings.php\",\n            \"line\": 50,\n            \"function\": \"Illuminate\\\\Pipeline\\\\{closure}\",\n            \"class\": \"Illuminate\\\\Pipeline\\\\Pipeline\",\n            \"type\": \"->\"\n        },\n        {\n            \"file\": \"D:\\\\Development\\\\projects\\\\gogreen\\\\api\\\\vendor\\\\laravel\\\\framework\\\\src\\\\Illuminate\\\\Pipeline\\\\Pipeline.php\",\n            \"line\": 167,\n            \"function\": \"handle\",\n            \"class\": \"Illuminate\\\\Routing\\\\Middleware\\\\SubstituteBindings\",\n            \"type\": \"->\"\n        },\n        {\n            \"file\": \"D:\\\\Development\\\\projects\\\\gogreen\\\\api\\\\vendor\\\\laravel\\\\framework\\\\src\\\\Illuminate\\\\Routing\\\\Middleware\\\\ThrottleRequests.php\",\n            \"line\": 127,\n            \"function\": \"Illuminate\\\\Pipeline\\\\{closure}\",\n            \"class\": \"Illuminate\\\\Pipeline\\\\Pipeline\",\n            \"type\": \"->\"\n        },\n        {\n            \"file\": \"D:\\\\Development\\\\projects\\\\gogreen\\\\api\\\\vendor\\\\laravel\\\\framework\\\\src\\\\Illuminate\\\\Routing\\\\Middleware\\\\ThrottleRequests.php\",\n            \"line\": 103,\n            \"function\": \"handleRequest\",\n            \"class\": \"Illuminate\\\\Routing\\\\Middleware\\\\ThrottleRequests\",\n            \"type\": \"->\"\n        },\n        {\n            \"file\": \"D:\\\\Development\\\\projects\\\\gogreen\\\\api\\\\vendor\\\\laravel\\\\framework\\\\src\\\\Illuminate\\\\Routing\\\\Middleware\\\\ThrottleRequests.php\",\n            \"line\": 55,\n            \"function\": \"handleRequestUsingNamedLimiter\",\n            \"class\": \"Illuminate\\\\Routing\\\\Middleware\\\\ThrottleRequests\",\n            \"type\": \"->\"\n        },\n        {\n            \"file\": \"D:\\\\Development\\\\projects\\\\gogreen\\\\api\\\\vendor\\\\laravel\\\\framework\\\\src\\\\Illuminate\\\\Pipeline\\\\Pipeline.php\",\n            \"line\": 167,\n            \"function\": \"handle\",\n            \"class\": \"Illuminate\\\\Routing\\\\Middleware\\\\ThrottleRequests\",\n            \"type\": \"->\"\n        },\n        {\n            \"file\": \"D:\\\\Development\\\\projects\\\\gogreen\\\\api\\\\vendor\\\\laravel\\\\framework\\\\src\\\\Illuminate\\\\Auth\\\\Middleware\\\\Authenticate.php\",\n            \"line\": 44,\n            \"function\": \"Illuminate\\\\Pipeline\\\\{closure}\",\n            \"class\": \"Illuminate\\\\Pipeline\\\\Pipeline\",\n            \"type\": \"->\"\n        },\n        {\n            \"file\": \"D:\\\\Development\\\\projects\\\\gogreen\\\\api\\\\vendor\\\\laravel\\\\framework\\\\src\\\\Illuminate\\\\Pipeline\\\\Pipeline.php\",\n            \"line\": 167,\n            \"function\": \"handle\",\n            \"class\": \"Illuminate\\\\Auth\\\\Middleware\\\\Authenticate\",\n            \"type\": \"->\"\n        },\n        {\n            \"file\": \"D:\\\\Development\\\\projects\\\\gogreen\\\\api\\\\vendor\\\\laravel\\\\framework\\\\src\\\\Illuminate\\\\Pipeline\\\\Pipeline.php\",\n            \"line\": 103,\n            \"function\": \"Illuminate\\\\Pipeline\\\\{closure}\",\n            \"class\": \"Illuminate\\\\Pipeline\\\\Pipeline\",\n            \"type\": \"->\"\n        },\n        {\n            \"file\": \"D:\\\\Development\\\\projects\\\\gogreen\\\\api\\\\vendor\\\\laravel\\\\framework\\\\src\\\\Illuminate\\\\Routing\\\\Router.php\",\n            \"line\": 697,\n            \"function\": \"then\",\n            \"class\": \"Illuminate\\\\Pipeline\\\\Pipeline\",\n            \"type\": \"->\"\n        },\n        {\n            \"file\": \"D:\\\\Development\\\\projects\\\\gogreen\\\\api\\\\vendor\\\\laravel\\\\framework\\\\src\\\\Illuminate\\\\Routing\\\\Router.php\",\n            \"line\": 672,\n            \"function\": \"runRouteWithinStack\",\n            \"class\": \"Illuminate\\\\Routing\\\\Router\",\n            \"type\": \"->\"\n        },\n        {\n            \"file\": \"D:\\\\Development\\\\projects\\\\gogreen\\\\api\\\\vendor\\\\laravel\\\\framework\\\\src\\\\Illuminate\\\\Routing\\\\Router.php\",\n            \"line\": 636,\n            \"function\": \"runRoute\",\n            \"class\": \"Illuminate\\\\Routing\\\\Router\",\n            \"type\": \"->\"\n        },\n        {\n            \"file\": \"D:\\\\Development\\\\projects\\\\gogreen\\\\api\\\\vendor\\\\laravel\\\\framework\\\\src\\\\Illuminate\\\\Routing\\\\Router.php\",\n            \"line\": 625,\n            \"function\": \"dispatchToRoute\",\n            \"class\": \"Illuminate\\\\Routing\\\\Router\",\n            \"type\": \"->\"\n        },\n        {\n            \"file\": \"D:\\\\Development\\\\projects\\\\gogreen\\\\api\\\\vendor\\\\laravel\\\\framework\\\\src\\\\Illuminate\\\\Foundation\\\\Http\\\\Kernel.php\",\n            \"line\": 167,\n            \"function\": \"dispatch\",\n            \"class\": \"Illuminate\\\\Routing\\\\Router\",\n            \"type\": \"->\"\n        },\n        {\n            \"file\": \"D:\\\\Development\\\\projects\\\\gogreen\\\\api\\\\vendor\\\\laravel\\\\framework\\\\src\\\\Illuminate\\\\Pipeline\\\\Pipeline.php\",\n            \"line\": 128,\n            \"function\": \"Illuminate\\\\Foundation\\\\Http\\\\{closure}\",\n            \"class\": \"Illuminate\\\\Foundation\\\\Http\\\\Kernel\",\n            \"type\": \"->\"\n        },\n        {\n            \"file\": \"D:\\\\Development\\\\projects\\\\gogreen\\\\api\\\\vendor\\\\barryvdh\\\\laravel-debugbar\\\\src\\\\Middleware\\\\InjectDebugbar.php\",\n            \"line\": 60,\n            \"function\": \"Illuminate\\\\Pipeline\\\\{closure}\",\n            \"class\": \"Illuminate\\\\Pipeline\\\\Pipeline\",\n            \"type\": \"->\"\n        },\n        {\n            \"file\": \"D:\\\\Development\\\\projects\\\\gogreen\\\\api\\\\vendor\\\\laravel\\\\framework\\\\src\\\\Illuminate\\\\Pipeline\\\\Pipeline.php\",\n            \"line\": 167,\n            \"function\": \"handle\",\n            \"class\": \"Barryvdh\\\\Debugbar\\\\Middleware\\\\InjectDebugbar\",\n            \"type\": \"->\"\n        },\n        {\n            \"file\": \"D:\\\\Development\\\\projects\\\\gogreen\\\\api\\\\vendor\\\\laravel\\\\framework\\\\src\\\\Illuminate\\\\Foundation\\\\Http\\\\Middleware\\\\TransformsRequest.php\",\n            \"line\": 21,\n            \"function\": \"Illuminate\\\\Pipeline\\\\{closure}\",\n            \"class\": \"Illuminate\\\\Pipeline\\\\Pipeline\",\n            \"type\": \"->\"\n        },\n        {\n            \"file\": \"D:\\\\Development\\\\projects\\\\gogreen\\\\api\\\\vendor\\\\laravel\\\\framework\\\\src\\\\Illuminate\\\\Foundation\\\\Http\\\\Middleware\\\\ConvertEmptyStringsToNull.php\",\n            \"line\": 31,\n            \"function\": \"handle\",\n            \"class\": \"Illuminate\\\\Foundation\\\\Http\\\\Middleware\\\\TransformsRequest\",\n            \"type\": \"->\"\n        },\n        {\n            \"file\": \"D:\\\\Development\\\\projects\\\\gogreen\\\\api\\\\vendor\\\\laravel\\\\framework\\\\src\\\\Illuminate\\\\Pipeline\\\\Pipeline.php\",\n            \"line\": 167,\n            \"function\": \"handle\",\n            \"class\": \"Illuminate\\\\Foundation\\\\Http\\\\Middleware\\\\ConvertEmptyStringsToNull\",\n            \"type\": \"->\"\n        },\n        {\n            \"file\": \"D:\\\\Development\\\\projects\\\\gogreen\\\\api\\\\vendor\\\\laravel\\\\framework\\\\src\\\\Illuminate\\\\Foundation\\\\Http\\\\Middleware\\\\TransformsRequest.php\",\n            \"line\": 21,\n            \"function\": \"Illuminate\\\\Pipeline\\\\{closure}\",\n            \"class\": \"Illuminate\\\\Pipeline\\\\Pipeline\",\n            \"type\": \"->\"\n        },\n        {\n            \"file\": \"D:\\\\Development\\\\projects\\\\gogreen\\\\api\\\\vendor\\\\laravel\\\\framework\\\\src\\\\Illuminate\\\\Foundation\\\\Http\\\\Middleware\\\\TrimStrings.php\",\n            \"line\": 40,\n            \"function\": \"handle\",\n            \"class\": \"Illuminate\\\\Foundation\\\\Http\\\\Middleware\\\\TransformsRequest\",\n            \"type\": \"->\"\n        },\n        {\n            \"file\": \"D:\\\\Development\\\\projects\\\\gogreen\\\\api\\\\vendor\\\\laravel\\\\framework\\\\src\\\\Illuminate\\\\Pipeline\\\\Pipeline.php\",\n            \"line\": 167,\n            \"function\": \"handle\",\n            \"class\": \"Illuminate\\\\Foundation\\\\Http\\\\Middleware\\\\TrimStrings\",\n            \"type\": \"->\"\n        },\n        {\n            \"file\": \"D:\\\\Development\\\\projects\\\\gogreen\\\\api\\\\vendor\\\\laravel\\\\framework\\\\src\\\\Illuminate\\\\Foundation\\\\Http\\\\Middleware\\\\ValidatePostSize.php\",\n            \"line\": 27,\n            \"function\": \"Illuminate\\\\Pipeline\\\\{closure}\",\n            \"class\": \"Illuminate\\\\Pipeline\\\\Pipeline\",\n            \"type\": \"->\"\n        },\n        {\n            \"file\": \"D:\\\\Development\\\\projects\\\\gogreen\\\\api\\\\vendor\\\\laravel\\\\framework\\\\src\\\\Illuminate\\\\Pipeline\\\\Pipeline.php\",\n            \"line\": 167,\n            \"function\": \"handle\",\n            \"class\": \"Illuminate\\\\Foundation\\\\Http\\\\Middleware\\\\ValidatePostSize\",\n            \"type\": \"->\"\n        },\n        {\n            \"file\": \"D:\\\\Development\\\\projects\\\\gogreen\\\\api\\\\vendor\\\\laravel\\\\framework\\\\src\\\\Illuminate\\\\Foundation\\\\Http\\\\Middleware\\\\PreventRequestsDuringMaintenance.php\",\n            \"line\": 86,\n            \"function\": \"Illuminate\\\\Pipeline\\\\{closure}\",\n            \"class\": \"Illuminate\\\\Pipeline\\\\Pipeline\",\n            \"type\": \"->\"\n        },\n        {\n            \"file\": \"D:\\\\Development\\\\projects\\\\gogreen\\\\api\\\\vendor\\\\laravel\\\\framework\\\\src\\\\Illuminate\\\\Pipeline\\\\Pipeline.php\",\n            \"line\": 167,\n            \"function\": \"handle\",\n            \"class\": \"Illuminate\\\\Foundation\\\\Http\\\\Middleware\\\\PreventRequestsDuringMaintenance\",\n            \"type\": \"->\"\n        },\n        {\n            \"file\": \"D:\\\\Development\\\\projects\\\\gogreen\\\\api\\\\vendor\\\\fruitcake\\\\laravel-cors\\\\src\\\\HandleCors.php\",\n            \"line\": 52,\n            \"function\": \"Illuminate\\\\Pipeline\\\\{closure}\",\n            \"class\": \"Illuminate\\\\Pipeline\\\\Pipeline\",\n            \"type\": \"->\"\n        },\n        {\n            \"file\": \"D:\\\\Development\\\\projects\\\\gogreen\\\\api\\\\vendor\\\\laravel\\\\framework\\\\src\\\\Illuminate\\\\Pipeline\\\\Pipeline.php\",\n            \"line\": 167,\n            \"function\": \"handle\",\n            \"class\": \"Fruitcake\\\\Cors\\\\HandleCors\",\n            \"type\": \"->\"\n        },\n        {\n            \"file\": \"D:\\\\Development\\\\projects\\\\gogreen\\\\api\\\\vendor\\\\laravel\\\\framework\\\\src\\\\Illuminate\\\\Http\\\\Middleware\\\\TrustProxies.php\",\n            \"line\": 39,\n            \"function\": \"Illuminate\\\\Pipeline\\\\{closure}\",\n            \"class\": \"Illuminate\\\\Pipeline\\\\Pipeline\",\n            \"type\": \"->\"\n        },\n        {\n            \"file\": \"D:\\\\Development\\\\projects\\\\gogreen\\\\api\\\\vendor\\\\laravel\\\\framework\\\\src\\\\Illuminate\\\\Pipeline\\\\Pipeline.php\",\n            \"line\": 167,\n            \"function\": \"handle\",\n            \"class\": \"Illuminate\\\\Http\\\\Middleware\\\\TrustProxies\",\n            \"type\": \"->\"\n        },\n        {\n            \"file\": \"D:\\\\Development\\\\projects\\\\gogreen\\\\api\\\\vendor\\\\laravel\\\\framework\\\\src\\\\Illuminate\\\\Pipeline\\\\Pipeline.php\",\n            \"line\": 103,\n            \"function\": \"Illuminate\\\\Pipeline\\\\{closure}\",\n            \"class\": \"Illuminate\\\\Pipeline\\\\Pipeline\",\n            \"type\": \"->\"\n        },\n        {\n            \"file\": \"D:\\\\Development\\\\projects\\\\gogreen\\\\api\\\\vendor\\\\laravel\\\\framework\\\\src\\\\Illuminate\\\\Foundation\\\\Http\\\\Kernel.php\",\n            \"line\": 142,\n            \"function\": \"then\",\n            \"class\": \"Illuminate\\\\Pipeline\\\\Pipeline\",\n            \"type\": \"->\"\n        },\n        {\n            \"file\": \"D:\\\\Development\\\\projects\\\\gogreen\\\\api\\\\vendor\\\\laravel\\\\framework\\\\src\\\\Illuminate\\\\Foundation\\\\Http\\\\Kernel.php\",\n            \"line\": 111,\n            \"function\": \"sendRequestThroughRouter\",\n            \"class\": \"Illuminate\\\\Foundation\\\\Http\\\\Kernel\",\n            \"type\": \"->\"\n        },\n        {\n            \"file\": \"D:\\\\Development\\\\projects\\\\gogreen\\\\api\\\\vendor\\\\knuckleswtf\\\\scribe\\\\src\\\\Extracting\\\\Strategies\\\\Responses\\\\ResponseCalls.php\",\n            \"line\": 299,\n            \"function\": \"handle\",\n            \"class\": \"Illuminate\\\\Foundation\\\\Http\\\\Kernel\",\n            \"type\": \"->\"\n        },\n        {\n            \"file\": \"D:\\\\Development\\\\projects\\\\gogreen\\\\api\\\\vendor\\\\knuckleswtf\\\\scribe\\\\src\\\\Extracting\\\\Strategies\\\\Responses\\\\ResponseCalls.php\",\n            \"line\": 287,\n            \"function\": \"callLaravelOrLumenRoute\",\n            \"class\": \"Knuckles\\\\Scribe\\\\Extracting\\\\Strategies\\\\Responses\\\\ResponseCalls\",\n            \"type\": \"->\"\n        },\n        {\n            \"file\": \"D:\\\\Development\\\\projects\\\\gogreen\\\\api\\\\vendor\\\\knuckleswtf\\\\scribe\\\\src\\\\Extracting\\\\Strategies\\\\Responses\\\\ResponseCalls.php\",\n            \"line\": 89,\n            \"function\": \"makeApiCall\",\n            \"class\": \"Knuckles\\\\Scribe\\\\Extracting\\\\Strategies\\\\Responses\\\\ResponseCalls\",\n            \"type\": \"->\"\n        },\n        {\n            \"file\": \"D:\\\\Development\\\\projects\\\\gogreen\\\\api\\\\vendor\\\\knuckleswtf\\\\scribe\\\\src\\\\Extracting\\\\Strategies\\\\Responses\\\\ResponseCalls.php\",\n            \"line\": 45,\n            \"function\": \"makeResponseCall\",\n            \"class\": \"Knuckles\\\\Scribe\\\\Extracting\\\\Strategies\\\\Responses\\\\ResponseCalls\",\n            \"type\": \"->\"\n        },\n        {\n            \"file\": \"D:\\\\Development\\\\projects\\\\gogreen\\\\api\\\\vendor\\\\knuckleswtf\\\\scribe\\\\src\\\\Extracting\\\\Strategies\\\\Responses\\\\ResponseCalls.php\",\n            \"line\": 35,\n            \"function\": \"makeResponseCallIfConditionsPass\",\n            \"class\": \"Knuckles\\\\Scribe\\\\Extracting\\\\Strategies\\\\Responses\\\\ResponseCalls\",\n            \"type\": \"->\"\n        },\n        {\n            \"file\": \"D:\\\\Development\\\\projects\\\\gogreen\\\\api\\\\vendor\\\\knuckleswtf\\\\scribe\\\\src\\\\Extracting\\\\Extractor.php\",\n            \"line\": 222,\n            \"function\": \"__invoke\",\n            \"class\": \"Knuckles\\\\Scribe\\\\Extracting\\\\Strategies\\\\Responses\\\\ResponseCalls\",\n            \"type\": \"->\"\n        },\n        {\n            \"file\": \"D:\\\\Development\\\\projects\\\\gogreen\\\\api\\\\vendor\\\\knuckleswtf\\\\scribe\\\\src\\\\Extracting\\\\Extractor.php\",\n            \"line\": 179,\n            \"function\": \"iterateThroughStrategies\",\n            \"class\": \"Knuckles\\\\Scribe\\\\Extracting\\\\Extractor\",\n            \"type\": \"->\"\n        },\n        {\n            \"file\": \"D:\\\\Development\\\\projects\\\\gogreen\\\\api\\\\vendor\\\\knuckleswtf\\\\scribe\\\\src\\\\Extracting\\\\Extractor.php\",\n            \"line\": 116,\n            \"function\": \"fetchResponses\",\n            \"class\": \"Knuckles\\\\Scribe\\\\Extracting\\\\Extractor\",\n            \"type\": \"->\"\n        },\n        {\n            \"file\": \"D:\\\\Development\\\\projects\\\\gogreen\\\\api\\\\vendor\\\\knuckleswtf\\\\scribe\\\\src\\\\GroupedEndpoints\\\\GroupedEndpointsFromApp.php\",\n            \"line\": 117,\n            \"function\": \"processRoute\",\n            \"class\": \"Knuckles\\\\Scribe\\\\Extracting\\\\Extractor\",\n            \"type\": \"->\"\n        },\n        {\n            \"file\": \"D:\\\\Development\\\\projects\\\\gogreen\\\\api\\\\vendor\\\\knuckleswtf\\\\scribe\\\\src\\\\GroupedEndpoints\\\\GroupedEndpointsFromApp.php\",\n            \"line\": 75,\n            \"function\": \"extractEndpointsInfoFromLaravelApp\",\n            \"class\": \"Knuckles\\\\Scribe\\\\GroupedEndpoints\\\\GroupedEndpointsFromApp\",\n            \"type\": \"->\"\n        },\n        {\n            \"file\": \"D:\\\\Development\\\\projects\\\\gogreen\\\\api\\\\vendor\\\\knuckleswtf\\\\scribe\\\\src\\\\GroupedEndpoints\\\\GroupedEndpointsFromApp.php\",\n            \"line\": 51,\n            \"function\": \"extractEndpointsInfoAndWriteToDisk\",\n            \"class\": \"Knuckles\\\\Scribe\\\\GroupedEndpoints\\\\GroupedEndpointsFromApp\",\n            \"type\": \"->\"\n        },\n        {\n            \"file\": \"D:\\\\Development\\\\projects\\\\gogreen\\\\api\\\\vendor\\\\knuckleswtf\\\\scribe\\\\src\\\\Commands\\\\GenerateDocumentation.php\",\n            \"line\": 48,\n            \"function\": \"get\",\n            \"class\": \"Knuckles\\\\Scribe\\\\GroupedEndpoints\\\\GroupedEndpointsFromApp\",\n            \"type\": \"->\"\n        },\n        {\n            \"file\": \"D:\\\\Development\\\\projects\\\\gogreen\\\\api\\\\vendor\\\\laravel\\\\framework\\\\src\\\\Illuminate\\\\Container\\\\BoundMethod.php\",\n            \"line\": 36,\n            \"function\": \"handle\",\n            \"class\": \"Knuckles\\\\Scribe\\\\Commands\\\\GenerateDocumentation\",\n            \"type\": \"->\"\n        },\n        {\n            \"file\": \"D:\\\\Development\\\\projects\\\\gogreen\\\\api\\\\vendor\\\\laravel\\\\framework\\\\src\\\\Illuminate\\\\Container\\\\Util.php\",\n            \"line\": 40,\n            \"function\": \"Illuminate\\\\Container\\\\{closure}\",\n            \"class\": \"Illuminate\\\\Container\\\\BoundMethod\",\n            \"type\": \"::\"\n        },\n        {\n            \"file\": \"D:\\\\Development\\\\projects\\\\gogreen\\\\api\\\\vendor\\\\laravel\\\\framework\\\\src\\\\Illuminate\\\\Container\\\\BoundMethod.php\",\n            \"line\": 93,\n            \"function\": \"unwrapIfClosure\",\n            \"class\": \"Illuminate\\\\Container\\\\Util\",\n            \"type\": \"::\"\n        },\n        {\n            \"file\": \"D:\\\\Development\\\\projects\\\\gogreen\\\\api\\\\vendor\\\\laravel\\\\framework\\\\src\\\\Illuminate\\\\Container\\\\BoundMethod.php\",\n            \"line\": 37,\n            \"function\": \"callBoundMethod\",\n            \"class\": \"Illuminate\\\\Container\\\\BoundMethod\",\n            \"type\": \"::\"\n        },\n        {\n            \"file\": \"D:\\\\Development\\\\projects\\\\gogreen\\\\api\\\\vendor\\\\laravel\\\\framework\\\\src\\\\Illuminate\\\\Container\\\\Container.php\",\n            \"line\": 653,\n            \"function\": \"call\",\n            \"class\": \"Illuminate\\\\Container\\\\BoundMethod\",\n            \"type\": \"::\"\n        },\n        {\n            \"file\": \"D:\\\\Development\\\\projects\\\\gogreen\\\\api\\\\vendor\\\\laravel\\\\framework\\\\src\\\\Illuminate\\\\Console\\\\Command.php\",\n            \"line\": 136,\n            \"function\": \"call\",\n            \"class\": \"Illuminate\\\\Container\\\\Container\",\n            \"type\": \"->\"\n        },\n        {\n            \"file\": \"D:\\\\Development\\\\projects\\\\gogreen\\\\api\\\\vendor\\\\symfony\\\\console\\\\Command\\\\Command.php\",\n            \"line\": 298,\n            \"function\": \"execute\",\n            \"class\": \"Illuminate\\\\Console\\\\Command\",\n            \"type\": \"->\"\n        },\n        {\n            \"file\": \"D:\\\\Development\\\\projects\\\\gogreen\\\\api\\\\vendor\\\\laravel\\\\framework\\\\src\\\\Illuminate\\\\Console\\\\Command.php\",\n            \"line\": 121,\n            \"function\": \"run\",\n            \"class\": \"Symfony\\\\Component\\\\Console\\\\Command\\\\Command\",\n            \"type\": \"->\"\n        },\n        {\n            \"file\": \"D:\\\\Development\\\\projects\\\\gogreen\\\\api\\\\vendor\\\\symfony\\\\console\\\\Application.php\",\n            \"line\": 1005,\n            \"function\": \"run\",\n            \"class\": \"Illuminate\\\\Console\\\\Command\",\n            \"type\": \"->\"\n        },\n        {\n            \"file\": \"D:\\\\Development\\\\projects\\\\gogreen\\\\api\\\\vendor\\\\symfony\\\\console\\\\Application.php\",\n            \"line\": 299,\n            \"function\": \"doRunCommand\",\n            \"class\": \"Symfony\\\\Component\\\\Console\\\\Application\",\n            \"type\": \"->\"\n        },\n        {\n            \"file\": \"D:\\\\Development\\\\projects\\\\gogreen\\\\api\\\\vendor\\\\symfony\\\\console\\\\Application.php\",\n            \"line\": 171,\n            \"function\": \"doRun\",\n            \"class\": \"Symfony\\\\Component\\\\Console\\\\Application\",\n            \"type\": \"->\"\n        },\n        {\n            \"file\": \"D:\\\\Development\\\\projects\\\\gogreen\\\\api\\\\vendor\\\\laravel\\\\framework\\\\src\\\\Illuminate\\\\Console\\\\Application.php\",\n            \"line\": 94,\n            \"function\": \"run\",\n            \"class\": \"Symfony\\\\Component\\\\Console\\\\Application\",\n            \"type\": \"->\"\n        },\n        {\n            \"file\": \"D:\\\\Development\\\\projects\\\\gogreen\\\\api\\\\vendor\\\\laravel\\\\framework\\\\src\\\\Illuminate\\\\Foundation\\\\Console\\\\Kernel.php\",\n            \"line\": 129,\n            \"function\": \"run\",\n            \"class\": \"Illuminate\\\\Console\\\\Application\",\n            \"type\": \"->\"\n        },\n        {\n            \"file\": \"D:\\\\Development\\\\projects\\\\gogreen\\\\api\\\\artisan\",\n            \"line\": 37,\n            \"function\": \"handle\",\n            \"class\": \"Illuminate\\\\Foundation\\\\Console\\\\Kernel\",\n            \"type\": \"->\"\n        }\n    ]\n}",
                            "name": ""
                        }
                    ]
                }
            ]
        },
        {
            "name": "Orders",
            "description": "",
            "item": [
                {
                    "name": "Get Order BY Id",
                    "request": {
                        "url": {
                            "host": "{{baseUrl}}",
                            "path": "api\/orders\/get\/:id",
                            "query": [],
                            "raw": "{{baseUrl}}\/api\/orders\/get\/:id",
                            "variable": [
                                {
                                    "id": "id",
                                    "key": "id",
                                    "value": "10",
                                    "description": "Order ID"
                                }
                            ]
                        },
                        "method": "GET",
                        "header": [
                            {
                                "key": "Content-Type",
                                "value": "application\/json"
                            },
                            {
                                "key": "Accept",
                                "value": "application\/json"
                            }
                        ],
                        "body": null,
                        "description": "Returns Order data array\nOtherwise returns unauthenticated or blank page"
                    },
                    "response": [
                        {
                            "header": [
                                {
                                    "key": "cache-control",
                                    "value": "no-cache, private"
                                },
                                {
                                    "key": "content-type",
                                    "value": "application\/json"
                                },
                                {
                                    "key": "x-ratelimit-limit",
                                    "value": "60"
                                },
                                {
                                    "key": "x-ratelimit-remaining",
                                    "value": "50"
                                },
                                {
                                    "key": "access-control-allow-origin",
                                    "value": "*"
                                }
                            ],
                            "code": 200,
                            "body": "[]",
                            "name": ""
                        }
                    ]
                },
                {
                    "name": "Create Order",
                    "request": {
                        "url": {
                            "host": "{{baseUrl}}",
                            "path": "api\/orders\/create",
                            "query": [],
                            "raw": "{{baseUrl}}\/api\/orders\/create"
                        },
                        "method": "POST",
                        "header": [
                            {
                                "key": "Content-Type",
                                "value": "application\/json"
                            },
                            {
                                "key": "Accept",
                                "value": "application\/json"
                            }
                        ],
                        "body": {
                            "mode": "raw",
                            "raw": "{\"type\":\"new\",\"linked_ticket_id\":1,\"movement_type\":\"Delivery\"}"
                        },
                        "description": "Returns new order details\n\nOtherwise returns unauthenticated or error array"
                    },
                    "response": []
                },
                {
                    "name": "Get Order By Client",
                    "request": {
                        "url": {
                            "host": "{{baseUrl}}",
                            "path": "api\/orders\/get\/client\/:id",
                            "query": [
                                {
                                    "key": "complete",
                                    "value": "",
                                    "description": "Complete (1 or 0). Leave out to return all",
                                    "disabled": true
                                },
                                {
                                    "key": "site_id",
                                    "value": "",
                                    "description": "Site ID.",
                                    "disabled": true
                                },
                                {
                                    "key": "limit",
                                    "value": "3",
                                    "description": "Limit. Leave out to return all",
                                    "disabled": false
                                }
                            ],
                            "raw": "{{baseUrl}}\/api\/orders\/get\/client\/:id?complete=&site_id=&limit=3",
                            "variable": [
                                {
                                    "id": "id",
                                    "key": "id",
                                    "value": "4",
                                    "description": "Client ID"
                                }
                            ]
                        },
                        "method": "GET",
                        "header": [
                            {
                                "key": "Content-Type",
                                "value": "application\/json"
                            },
                            {
                                "key": "Accept",
                                "value": "application\/json"
                            }
                        ],
                        "body": null,
                        "description": "Returns an array of Orders on a specific client\nOtherwise returns unauthenticated or error array"
                    },
                    "response": [
                        {
                            "header": [
                                {
                                    "key": "cache-control",
                                    "value": "no-cache, private"
                                },
                                {
                                    "key": "content-type",
                                    "value": "application\/json"
                                },
                                {
                                    "key": "x-ratelimit-limit",
                                    "value": "60"
                                },
                                {
                                    "key": "x-ratelimit-remaining",
                                    "value": "48"
                                },
                                {
                                    "key": "access-control-allow-origin",
                                    "value": "*"
                                }
                            ],
                            "code": 200,
                            "body": "[]",
                            "name": ""
                        }
                    ]
                },
                {
                    "name": "Get Order By Site",
                    "request": {
                        "url": {
                            "host": "{{baseUrl}}",
                            "path": "api\/orders\/get\/site\/:id",
                            "query": [
                                {
                                    "key": "complete",
                                    "value": "",
                                    "description": "Complete (1 or 0). Leave out to return all",
                                    "disabled": true
                                },
                                {
                                    "key": "client_id",
                                    "value": "",
                                    "description": "Client ID.",
                                    "disabled": true
                                },
                                {
                                    "key": "limit",
                                    "value": "16",
                                    "description": "Limit. Leave out to return all",
                                    "disabled": false
                                }
                            ],
                            "raw": "{{baseUrl}}\/api\/orders\/get\/site\/:id?complete=&client_id=&limit=16",
                            "variable": [
                                {
                                    "id": "id",
                                    "key": "id",
                                    "value": "1",
                                    "description": "Site ID"
                                }
                            ]
                        },
                        "method": "GET",
                        "header": [
                            {
                                "key": "Content-Type",
                                "value": "application\/json"
                            },
                            {
                                "key": "Accept",
                                "value": "application\/json"
                            }
                        ],
                        "body": null,
                        "description": "Returns an array of Orders on a specific site\nOtherwise returns unauthenticated or error array"
                    },
                    "response": [
                        {
                            "header": [
                                {
                                    "key": "cache-control",
                                    "value": "no-cache, private"
                                },
                                {
                                    "key": "content-type",
                                    "value": "application\/json"
                                },
                                {
                                    "key": "x-ratelimit-limit",
                                    "value": "60"
                                },
                                {
                                    "key": "x-ratelimit-remaining",
                                    "value": "49"
                                },
                                {
                                    "key": "access-control-allow-origin",
                                    "value": "*"
                                }
                            ],
                            "code": 200,
                            "body": "[{\"id\":1,\"MovementType\":\"Removal\",\"submited_date\":\"2022-02-15 21:25:31\",\"completion_date\":\"2022-02-19 21:33:22\",\"required_date\":\"0000-00-00 00:00:00\",\"complete\":0,\"notes\":\"Test order notes\",\"site\":{\"id\":1,\"name\":\"Test Site\",\"address\":\"England\",\"postcode\":\"LN18HL\",\"site_contact\":\"Dave\",\"site_email\":\"admin@site.com\"},\"client\":{\"id\":1,\"short_code\":\"TEST\",\"name\":\"Test Client\",\"address\":\"England\",\"postcode\":\"LN89ID\",\"telephone\":\"10987654321\",\"status\":1}},{\"id\":3,\"MovementType\":\"Exchange\",\"submited_date\":\"2022-02-13 21:34:07\",\"completion_date\":\"2022-02-21 21:34:30\",\"required_date\":\"0000-00-00 00:00:00\",\"complete\":0,\"notes\":\"cv nbcvbn cvbncvbn \",\"site\":{\"id\":1,\"name\":\"Test Site\",\"address\":\"England\",\"postcode\":\"LN18HL\",\"site_contact\":\"Dave\",\"site_email\":\"admin@site.com\"},\"client\":{\"id\":1,\"short_code\":\"TEST\",\"name\":\"Test Client\",\"address\":\"England\",\"postcode\":\"LN89ID\",\"telephone\":\"10987654321\",\"status\":1}},{\"id\":4,\"MovementType\":\"Delivery\",\"submited_date\":\"2022-02-23 19:49:49\",\"completion_date\":null,\"required_date\":\"2022-02-24 09:00:00\",\"complete\":0,\"notes\":\"Parent Ticket ID: 1\\n\\rOrdered By: Ash\\n\\rSite Contact: Dave\\n\\rExtra Notes: User notes\",\"site\":{\"id\":1,\"name\":\"Test Site\",\"address\":\"England\",\"postcode\":\"LN18HL\",\"site_contact\":\"Dave\",\"site_email\":\"admin@site.com\"},\"client\":{\"id\":1,\"short_code\":\"TEST\",\"name\":\"Test Client\",\"address\":\"England\",\"postcode\":\"LN89ID\",\"telephone\":\"10987654321\",\"status\":1}}]",
                            "name": ""
                        }
                    ]
                }
            ]
        },
        {
            "name": "Sites",
            "description": "",
            "item": [
                {
                    "name": "Get Site Data",
                    "request": {
                        "url": {
                            "host": "{{baseUrl}}",
                            "path": "api\/sites\/get\/:id",
                            "query": [],
                            "raw": "{{baseUrl}}\/api\/sites\/get\/:id",
                            "variable": [
                                {
                                    "id": "id",
                                    "key": "id",
                                    "value": "16",
                                    "description": "Site ID."
                                }
                            ]
                        },
                        "method": "GET",
                        "header": [
                            {
                                "key": "Content-Type",
                                "value": "application\/json"
                            },
                            {
                                "key": "Accept",
                                "value": "application\/json"
                            }
                        ],
                        "body": null,
                        "description": "Returns Site data array\n\nOtherwise returns unauthenticated or error array"
                    },
                    "response": [
                        {
                            "header": [
                                {
                                    "key": "cache-control",
                                    "value": "no-cache, private"
                                },
                                {
                                    "key": "content-type",
                                    "value": "application\/json"
                                },
                                {
                                    "key": "x-ratelimit-limit",
                                    "value": "60"
                                },
                                {
                                    "key": "x-ratelimit-remaining",
                                    "value": "57"
                                },
                                {
                                    "key": "access-control-allow-origin",
                                    "value": "*"
                                }
                            ],
                            "code": 200,
                            "body": "[]",
                            "name": ""
                        }
                    ]
                },
                {
                    "name": "Get Sites by Client",
                    "request": {
                        "url": {
                            "host": "{{baseUrl}}",
                            "path": "api\/sites\/get\/client\/:id",
                            "query": [],
                            "raw": "{{baseUrl}}\/api\/sites\/get\/client\/:id",
                            "variable": [
                                {
                                    "id": "id",
                                    "key": "id",
                                    "value": "7",
                                    "description": "Client ID."
                                }
                            ]
                        },
                        "method": "GET",
                        "header": [
                            {
                                "key": "Content-Type",
                                "value": "application\/json"
                            },
                            {
                                "key": "Accept",
                                "value": "application\/json"
                            }
                        ],
                        "body": null,
                        "description": "Returns an array of Site for a specific client\n\nOtherwise returns unauthenticated or error array"
                    },
                    "response": [
                        {
                            "header": [
                                {
                                    "key": "cache-control",
                                    "value": "no-cache, private"
                                },
                                {
                                    "key": "content-type",
                                    "value": "application\/json"
                                },
                                {
                                    "key": "x-ratelimit-limit",
                                    "value": "60"
                                },
                                {
                                    "key": "x-ratelimit-remaining",
                                    "value": "56"
                                },
                                {
                                    "key": "access-control-allow-origin",
                                    "value": "*"
                                }
                            ],
                            "code": 200,
                            "body": "[]",
                            "name": ""
                        }
                    ]
                }
            ]
        },
        {
            "name": "Users",
            "description": "",
            "item": [
                {
                    "name": "Get User data",
                    "request": {
                        "url": {
                            "host": "{{baseUrl}}",
                            "path": "api\/users\/get\/:id",
                            "query": [],
                            "raw": "{{baseUrl}}\/api\/users\/get\/:id",
                            "variable": [
                                {
                                    "id": "id",
                                    "key": "id",
                                    "value": "6",
                                    "description": "User ID."
                                }
                            ]
                        },
                        "method": "GET",
                        "header": [
                            {
                                "key": "Content-Type",
                                "value": "application\/json"
                            },
                            {
                                "key": "Accept",
                                "value": "application\/json"
                            }
                        ],
                        "body": null,
                        "description": "Returns User data array\n\nOtherwise returns unauthenticated or error array"
                    },
                    "response": [
                        {
                            "header": [
                                {
                                    "key": "cache-control",
                                    "value": "no-cache, private"
                                },
                                {
                                    "key": "content-type",
                                    "value": "application\/json"
                                },
                                {
                                    "key": "x-ratelimit-limit",
                                    "value": "60"
                                },
                                {
                                    "key": "x-ratelimit-remaining",
                                    "value": "58"
                                },
                                {
                                    "key": "access-control-allow-origin",
                                    "value": "*"
                                }
                            ],
                            "code": 200,
                            "body": "[{\"user_id\":6,\"user_email\":\"alia08@example.org\",\"user_name\":\"Kayleigh Hartmann\",\"user_client_id\":1}]",
                            "name": ""
                        }
                    ]
                },
                {
                    "name": "Forgot Password",
                    "request": {
                        "url": {
                            "host": "{{baseUrl}}",
                            "path": "api\/forgot-password",
                            "query": [],
                            "raw": "{{baseUrl}}\/api\/forgot-password"
                        },
                        "method": "POST",
                        "header": [
                            {
                                "key": "Content-Type",
                                "value": "application\/json"
                            },
                            {
                                "key": "Accept",
                                "value": "application\/json"
                            }
                        ],
                        "body": {
                            "mode": "raw",
                            "raw": "{\"email\":\"vel\"}"
                        },
                        "description": "Requests password reset email for specific user\n\nOtherwise returns unauthenticated or error array",
                        "auth": {
                            "type": "noauth"
                        }
                    },
                    "response": []
                }
            ]
        }
    ],
    "auth": {
        "type": "bearer"
    }
}